[{
        "nombre": "Coche",
        "peso": 1200,
        "arrancado": false,
        "color": "Rojo",
        "": ""
    },
    {
        "marca": "Seat",
        "potencia": "80 CV",
        "color": "verde",
        "puertas": 5,
        "deposito": "40 litros",
        "materiales": [
            "Hierro",
            "Caucho",
            "Cristal"
        ],
        "modelo": "Seat Córdoba"
    }
]